 "{\"page\":1,\"total_results\":10000,\"total_pages\":500,\"results\":[{\"popularity\":1811.246,\"vote_count\":67,\"video\":false,\"poster_path\":\"\\/elZ6JCzSEvFOq4gNjNeZsnRFsvj.jpg\",\"id\":741067,\"adult\":false,\"backdrop_path\":\"\\/aO5ILS7qnqtFIprbJ40zla0jhpu.jpg\",\"original_language\":\"en\",\"original_title\":\"Welcome to Sudden Death\",\"genre_ids\":[28,18,53],\"title\":\"Welcome to Sudden Death\",\"vote_average\":7.4,\"overview\":\"Jesse Freeman is a former special forces officer and explosives expert now working a regular job as a security guard in a state-of-the-art basketball arena. Trouble erupts when a tech-savvy cadre of terrorists kidnap the team's owner and Jesse's daughter during opening night. Facing a ticking clock and impossible odds, it's up to Jesse to not only save them but also a full house of fans in this highly charged action thriller.\",\"release_date\":\"2020-09-29\"},{\"popularity\":1548.171,\"vote_count\":1809,\"video\":false,\"poster_path\":\"\\/riYInlsq2kf1AWoGm80JQW5dLKp.jpg\",\"id\":497582,\"adult\":false,\"backdrop_path\":\"\\/kMe4TKMDNXTKptQPAdOF0oZHq3V.jpg\",\"original_language\":\"en\",\"original_title\":\"Enola Holmes\",\"genre_ids\":[80,18,9648],\"title\":\"Enola Holmes\",\"vote_average\":7.6,\"overview\":\"While searching for her missing mother, intrepid teen Enola Holmes uses her sleuthing skills to outsmart big brother Sherlock and help a runaway lord.\",\"release_date\":\"2020-09-23\"},{\"popularity\":1033.775,\"vote_count\":42,\"video\":false,\"poster_path\":\"\\/qOYf3L6eyCO027JoeM33pTJcNSR.jpg\",\"id\":623634,\"adult\":false,\"backdrop_path\":\"\\/fbjzxbWAUijs0fsQ6Hlbls0NtAj.jpg\",\"original_language\":\"ca\",\"original_title\":\"La inn\xC3\xB2cencia\",\"genre_ids\":[18],\"title\":\"The Innocence\",\"vote_average\":6.4,\"overview\":\"Lis is a teenager whose dream is to become a circus artist and leave her hometown, even if she knows that to do it she\xE2\x80\x99ll have to fight her side against her parents. It\xE2\x80\x99s summer and she spends her days playing with her friends and flirting with her boyfriend, a few years older than herself. The lack of privacy and the neighbours\xE2\x80\x99 gossip force Lis to keep their relationship secret so that her parents won\xE2\x80\x99t find out. A relationship which change her live forever.\",\"release_date\":\"2020-01-10\"},{\"popularity\":993.06,\"vote_count\":2364,\"video\":false,\"poster_path\":\"\\/aKx1ARwG55zZ0GpRvU2WrGrCG9o.jpg\",\"id\":337401,\"adult\":false,\"backdrop_path\":\"\\/zzWGRw277MNoCs3zhyG3YmYQsXv.jpg\",\"original_language\":\"en\",\"original_title\":\"Mulan\",\"genre_ids\":[28,12,18,14],\"title\":\"Mulan\",\"vote_average\":7.3,\"overview\":\"When the Emperor of China issues a decree that one man per family must serve in the Imperial Chinese Army to defend the country from Huns, Hua Mulan, the eldest daughter of an honored warrior, steps in to take the place of her ailing father. She is spirited, determined and quick on her feet. Disguised as a man by the name of Hua Jun, she is tested every step of the way and must harness her innermost strength and embrace her true potential.\",\"release_date\":\"2020-09-04\"},{\"popularity\":963.446,\"vote_count\":131,\"video\":false,\"poster_path\":\"\\/ugZW8ocsrfgI95pnQ7wrmKDxIe.jpg\",\"id\":724989,\"adult\":false,\"backdrop_path\":\"\\/86L8wqGMDbwURPni2t7FQ0nDjsH.jpg\",\"original_language\":\"en\",\"original_title\":\"Hard Kill\",\"genre_ids\":[28,53],\"title\":\"Hard Kill\",\"vote_average\":4.7,\"overview\":\"The work of billionaire tech CEO Donovan Chalmers is so valuable that he hires mercenaries to protect it, and a terrorist group kidnaps his daughter just to get it.\",\"release_date\":\"2020-08-25\"},{\"popularity\":933.603,\"vote_count\":124,\"video\":false,\"poster_path\":\"\\/6CoRTJTmijhBLJTUNoVSUNxZMEI.jpg\",\"id\":694919,\"adult\":false,\"backdrop_path\":\"\\/pq0JSpwyT2URytdFG0euztQPAyR.jpg\",\"original_language\":\"en\",\"original_title\":\"Money Plane\",\"genre_ids\":[28],\"title\":\"Money Plane\",\"vote_average\":6.1,\"overview\":\"A professional thief with $40 million in debt and his family's life on the line must commit one final heist - rob a futuristic airborne casino filled with the world's most dangerous criminals.\",\"release_date\":\"2020-09-29\"},{\"popularity\":837.048,\"vote_count\":451,\"video\":false,\"poster_path\":\"\\/qzA87Wf4jo1h8JMk9GilyIYvwsA.jpg\",\"id\":539885,\"adult\":false,\"backdrop_path\":\"\\/54yOImQgj8i85u9hxxnaIQBRUuo.jpg\",\"original_language\":\"en\",\"original_title\":\"Ava\",\"genre_ids\":[28,80,18,53],\"title\":\"Ava\",\"vote_average\":5.9,\"overview\":\"A black ops assassin is forced to fight for her own survival after a job goes dangerously wrong.\",\"release_date\":\"2020-07-02\"},{\"popularity\":795.08,\"vote_count\":3,\"video\":false,\"poster_path\":\"\\/z0r3YjyJSLqf6Hz0rbBAnEhNXQ7.jpg\",\"id\":697064,\"adult\":false,\"backdrop_path\":\"\\/7WKIOXJa2JjHygE8Yta3uaCv6GC.jpg\",\"original_language\":\"en\",\"original_title\":\"Beckman\",\"genre_ids\":[28],\"title\":\"Beckman\",\"vote_average\":6.7,\"overview\":\"A contract killer, becomes the reverend of a LA church, until a cult leader and his minions kidnap his daughter. Blinded by vengeance, he cuts a bloody path across the city. The only thing that can stop him is his newfound faith.\",\"release_date\":\"2020-09-10\"},{\"popularity\":724.869,\"vote_count\":138,\"video\":false,\"poster_path\":\"\\/xOmGTJtBgRVSAF4S5dZEUqHqyy5.jpg\",\"id\":621870,\"adult\":false,\"backdrop_path\":\"\\/oSSEcPDfwgZSv2i01Oqxdb9t8fI.jpg\",\"original_language\":\"en\",\"original_title\":\"Secret Society of Second Born Royals\",\"genre_ids\":[28,12,35,14],\"title\":\"Secret Society of Second Born Royals\",\"vote_average\":7,\"overview\":\"Sam is a teenage royal rebel, second in line to the throne of the kingdom of Illyria. Just as her disinterest in the royal way of life is at an all-time high, she discovers she has super-human abilities and is invited to join a secret society of similar extraordinary second-born royals charged with keeping the world safe.\",\"release_date\":\"2020-09-25\"},{\"popularity\":702.161,\"vote_count\":293,\"video\":false,\"poster_path\":\"\\/uOw5JD8IlD546feZ6oxbIjvN66P.jpg\",\"id\":718444,\"adult\":false,\"backdrop_path\":\"\\/x4UkhIQuHIJyeeOTdcbZ3t3gBSa.jpg\",\"original_language\":\"en\",\"original_title\":\"Rogue\",\"genre_ids\":[28],\"title\":\"Rogue\",\"vote_average\":5.9,\"overview\":\"Battle-hardened O\xE2\x80\x99Hara leads a lively mercenary team of soldiers on a daring mission: rescue hostages from their captors in remote Africa. But as the mission goes awry and the team is stranded, O\xE2\x80\x99Hara\xE2\x80\x99s squad must face a bloody, brutal encounter with a gang of rebels.\",\"release_date\":\"2020-08-20\"},{\"popularity\":700.868,\"vote_count\":585,\"video\":false,\"poster_path\":\"\\/sy6DvAu72kjoseZEjocnm2ZZ09i.jpg\",\"id\":581392,\"adult\":false,\"backdrop_path\":\"\\/gEjNlhZhyHeto6Fy5wWy5Uk3A9D.jpg\",\"original_language\":\"ko\",\"original_title\":\"\xEB\xB0\x98\xEB\x8F\x84\",\"genre_ids\":[28,27,53],\"title\":\"Peninsula\",\"vote_average\":7.1,\"overview\":\"A soldier and his team battle hordes of post-apocalyptic zombies in the wastelands of the Korean Peninsula.\",\"release_date\":\"2020-07-15\"},{\"popularity\":690.977,\"vote_count\":134,\"video\":false,\"poster_path\":\"\\/9Rj8l6gElLpRL7Kj17iZhrT5Zuw.jpg\",\"id\":734309,\"adult\":false,\"backdrop_path\":\"\\/7fvdg211A2L0mHddvzyArRuRalp.jpg\",\"original_language\":\"en\",\"original_title\":\"Santana\",\"genre_ids\":[28],\"title\":\"Santana\",\"vote_average\":5.5,\"overview\":\"Two brothers \xE2\x80\x94 one a narcotics agent and the other a general \xE2\x80\x94 finally discover the identity of the drug lord who murdered their parents decades ago. They may kill each other before capturing the bad guys.\",\"release_date\":\"2020-08-28\"},{\"popularity\":602.926,\"vote_count\":208,\"video\":false,\"poster_path\":\"\\/vJHSParlylICnI7DuuI54nfTPRR.jpg\",\"id\":438396,\"adult\":false,\"backdrop_path\":\"\\/qGZe9qTuydxyJYQ60XDtEckzLR8.jpg\",\"original_language\":\"es\",\"original_title\":\"Or\xC3\xADgenes secretos\",\"genre_ids\":[18,53],\"title\":\"Unknown Origins\",\"vote_average\":6.3,\"overview\":\"In Madrid, Spain, a mysterious serial killer ruthlessly murders his victims by recreating the first appearance of several comic book superheroes. Cosme, a veteran police inspector who is about to retire, works on the case along with the tormented inspector David Valent\xC3\xADn and his own son Jorge El\xC3\xADas, a nerdy young man who owns a comic book store.\",\"release_date\":\"2020-08-28\"},{\"popularity\":566.1,\"vote_count\":56,\"video\":false,\"poster_path\":\"\\/gmaDht41xVngHDQA8nOGUIC80v6.jpg\",\"id\":726739,\"adult\":false,\"backdrop_path\":\"\\/t22fWbzdnThPseipsdpwgdPOPCR.jpg\",\"original_language\":\"en\",\"original_title\":\"Cats & Dogs 3: Paws Unite\",\"genre_ids\":[28,35],\"title\":\"Cats & Dogs 3: Paws Unite\",\"vote_average\":6.7,\"overview\":\"It's been ten years since the creation of the Great Truce, an elaborate joint-species surveillance system designed and monitored by cats and dogs to keep the peace when conflicts arise. But when a tech-savvy villain hacks into wireless networks to use frequencies only heard by cats and dogs, he manipulates them into conflict and the worldwide battle between cats and dogs is BACK ON. Now, a team of inexperienced and untested agents will have to use their old-school animal instincts to restore order and peace between cats and dogs everywhere.\",\"release_date\":\"2020-10-02\"},{\"popularity\":549.076,\"vote_count\":36,\"video\":false,\"poster_path\":\"\\/ov1sd4gvHpoVheHuJHCXJjadeIT.jpg\",\"id\":660982,\"adult\":false,\"backdrop_path\":\"\\/75ooojtgiKYm5LcCczbCexioZze.jpg\",\"original_language\":\"en\",\"original_title\":\"American Pie Presents: Girls' Rules\",\"genre_ids\":[35],\"title\":\"American Pie Presents: Girls Rules\",\"vote_average\":6.5,\"overview\":\"It's Senior year at East Great Falls. Annie, Kayla, Michelle, and Stephanie decide to harness their girl power and band together to get what they want their last year of high school.\",\"release_date\":\"2020-10-06\"},{\"popularity\":500.237,\"vote_count\":63,\"video\":false,\"poster_path\":\"\\/k8Oj2YlFKbwj1SNKZcb5Fw1Yosj.jpg\",\"id\":741998,\"adult\":false,\"backdrop_path\":\"\\/tOOfXpIKyY80kY108pwSgLozgRA.jpg\",\"original_language\":\"it\",\"original_title\":\"Il legame\",\"genre_ids\":[18,27,53],\"title\":\"The Binding\",\"vote_average\":5.5,\"overview\":\"While visiting her fianc\xC3\xA9's mother in southern Italy, a woman must fight the mysterious and malevolent curse intent on claiming her daughter.\",\"release_date\":\"2020-10-02\"},{\"popularity\":486.785,\"vote_count\":121,\"video\":false,\"poster_path\":\"\\/eDnHgozW8vfOaLHzfpHluf1GZCW.jpg\",\"id\":606234,\"adult\":false,\"backdrop_path\":\"\\/u9YEh2xVAPVTKoaMNlB5tH6pXkm.jpg\",\"original_language\":\"en\",\"original_title\":\"Archive\",\"genre_ids\":[878],\"title\":\"Archive\",\"vote_average\":5.6,\"overview\":\"2038: George Almore is working on a true human-equivalent AI, and his latest prototype is almost ready. This sensitive phase is also the riskiest as he has a goal that must be hidden at all costs\xE2\x80\x94being reunited with his dead wife.\",\"release_date\":\"2020-08-13\"},{\"popularity\":460.313,\"vote_count\":104,\"video\":false,\"poster_path\":\"\\/i4kPwXPlM1iy8Jf3S1uuLuwqQAV.jpg\",\"id\":721452,\"adult\":false,\"backdrop_path\":\"\\/riDrpqQtZpXGeiJdlmfcwwPH7nN.jpg\",\"original_language\":\"en\",\"original_title\":\"One Night in Bangkok\",\"genre_ids\":[28,53],\"title\":\"One Night in Bangkok\",\"vote_average\":7.2,\"overview\":\"A hit man named Kai flies into Bangkok, gets a gun, and orders a cab. He offers a professional female driver big money to be his all-night driver. But when she realizes Kai is committing brutal murders at each stop, it's too late to walk away. Meanwhile, an offbeat police detective races to decode the string of slayings before more blood is spilled.\",\"release_date\":\"2020-08-25\"},{\"popularity\":432.305,\"vote_count\":1402,\"video\":false,\"poster_path\":\"\\/TnOeov4w0sTtV2gqICqIxVi74V.jpg\",\"id\":605116,\"adult\":false,\"backdrop_path\":\"\\/qVygtf2vU15L2yKS4Ke44U4oMdD.jpg\",\"original_language\":\"en\",\"original_title\":\"Project Power\",\"genre_ids\":[28,80,878],\"title\":\"Project Power\",\"vote_average\":6.6,\"overview\":\"An ex-soldier, a teen and a cop collide in New Orleans as they hunt for the source behind a dangerous new pill that grants users temporary superpowers.\",\"release_date\":\"2020-08-14\"},{\"popularity\":415.974,\"vote_count\":436,\"video\":false,\"poster_path\":\"\\/kPzcvxBwt7kEISB9O4jJEuBn72t.jpg\",\"id\":677638,\"adult\":false,\"backdrop_path\":\"\\/pO1SnM5a1fEsYrFaVZW78Wb0zRJ.jpg\",\"original_language\":\"en\",\"original_title\":\"We Bare Bears: The Movie\",\"genre_ids\":[12,16,35,10751],\"title\":\"We Bare Bears: The Movie\",\"vote_average\":7.8,\"overview\":\"When Grizz, Panda, and Ice Bear's love of food trucks and viral videos went out of hand, it catches the attention of Agent Trout from the National Wildlife Control, who pledges to restore the \xE2\x80\x9Cnatural order\xE2\x80\x9D by separating them forever. Chased away from their home, the Bears embark on an epic road trip as they seek refuge in Canada, with their journey being filled with new friends, perilous obstacles, and huge parties. The risky journey also forces the Bears to face how they first met and became brothers, in order to keep their family bond from splitting apart.\",\"release_date\":\"2020-06-30\"}]}"



 "{\"page\":2,\"total_results\":10000,\"total_pages\":500,\"results\":[{\"popularity\":415.574,\"vote_count\":109,\"video\":false,\"poster_path\":\"\\/n6hptKS7Y0ZjkYwbqKOK3jz9XAC.jpg\",\"id\":594328,\"adult\":false,\"backdrop_path\":\"\\/lkeBhXGJFRlhI7cBWn8LQQAdZqK.jpg\",\"original_language\":\"en\",\"original_title\":\"Phineas and Ferb The Movie: Candace Against the Universe\",\"genre_ids\":[16,35,10402,878,10751,10770],\"title\":\"Phineas and Ferb The Movie: Candace Against the Universe\",\"vote_average\":7.1,\"overview\":\"Phineas and Ferb travel across the galaxy to rescue their older sister Candace, who has been abducted by aliens and taken to a utopia in a far-off planet, free of her pesky little brothers.\",\"release_date\":\"2020-08-28\"},{\"popularity\":403.476,\"vote_count\":59,\"video\":false,\"poster_path\":\"\\/7D430eqZj8y3oVkLFfsWXGRcpEG.jpg\",\"id\":528085,\"adult\":false,\"backdrop_path\":\"\\/5UkzNSOK561c2QRy2Zr4AkADzLT.jpg\",\"original_language\":\"en\",\"original_title\":\"2067\",\"genre_ids\":[878,53],\"title\":\"2067\",\"vote_average\":5.8,\"overview\":\"A lowly utility worker is called to the future by a mysterious radio signal, he must leave his dying wife to embark on a journey that will force him to face his deepest fears in an attempt to change the fabric of reality and save humankind from its greatest environmental crisis yet.\",\"release_date\":\"2020-10-01\"},{\"popularity\":400.3,\"vote_count\":738,\"video\":false,\"poster_path\":\"\\/jHo2M1OiH9Re33jYtUQdfzPeUkx.jpg\",\"id\":385103,\"adult\":false,\"backdrop_path\":\"\\/fKtYXUhX5fxMxzQfyUcQW9Shik6.jpg\",\"original_language\":\"en\",\"original_title\":\"Scoob!\",\"genre_ids\":[12,16,35,10751],\"title\":\"Scoob!\",\"vote_average\":7.4,\"overview\":\"In Scooby-Doo\xE2\x80\x99s greatest adventure yet, see the never-before told story of how lifelong friends Scooby and Shaggy first met and how they joined forces with young detectives Fred, Velma, and Daphne to form the famous Mystery Inc. Now, with hundreds of cases solved, Scooby and the gang face their biggest, toughest mystery ever: an evil plot to unleash the ghost dog Cerberus upon the world. As they race to stop this global \xE2\x80\x9Cdogpocalypse,\xE2\x80\x9D the gang discovers that Scooby has a secret legacy and an epic destiny greater than anyone ever imagined.\",\"release_date\":\"2020-07-08\"},{\"popularity\":381.047,\"vote_count\":5845,\"video\":false,\"poster_path\":\"\\/aQvJ5WPzZgYVDrxLX4R6cLJCEaQ.jpg\",\"id\":454626,\"adult\":false,\"backdrop_path\":\"\\/stmYfCUGd8Iy6kAMBr6AmWqx8Bq.jpg\",\"original_language\":\"en\",\"original_title\":\"Sonic the Hedgehog\",\"genre_ids\":[28,35,878,10751],\"title\":\"Sonic the Hedgehog\",\"vote_average\":7.5,\"overview\":\"Based on the global blockbuster videogame franchise from Sega, Sonic the Hedgehog tells the story of the world\xE2\x80\x99s speediest hedgehog as he embraces his new home on Earth. In this live-action adventure comedy, Sonic and his new best friend team up to defend the planet from the evil genius Dr. Robotnik and his plans for world domination.\",\"release_date\":\"2020-02-12\"},{\"popularity\":378.438,\"vote_count\":65,\"video\":false,\"poster_path\":\"\\/w6e0XZreiyW4mGlLRHEG8ipff7b.jpg\",\"id\":722603,\"adult\":false,\"backdrop_path\":\"\\/m7QpUAeI2xTCJyAVl9J9z5dBTSb.jpg\",\"original_language\":\"en\",\"original_title\":\"Battlefield 2025\",\"genre_ids\":[28,27,878],\"title\":\"Battlefield 2025\",\"vote_average\":5.8,\"overview\":\"Weekend campers, an escaped convict, young lovers and a police officer experience a night of terror when a hostile visitor from another world descends on a small Arizona town.\",\"release_date\":\"2020-07-07\"},{\"popularity\":377.221,\"vote_count\":184,\"video\":false,\"poster_path\":\"\\/3TozQxUUX291sM68PlwsucoGatw.jpg\",\"id\":11707,\"adult\":false,\"backdrop_path\":\"\\/ceR1NkTowry9shrivFAlSXWTTa8.jpg\",\"original_language\":\"en\",\"original_title\":\"Tightrope\",\"genre_ids\":[80,18,9648,53],\"title\":\"Tightrope\",\"vote_average\":6.1,\"overview\":\"Wes Block is a detective who's put on the case of a serial killer. His victims are young and pretty women, which he rapes and murders. The murders are getting personal when the killer chooses victims who are acquaintances of Block. Even his daughters are threatened.\",\"release_date\":\"1984-08-17\"},{\"popularity\":373.458,\"vote_count\":440,\"video\":false,\"poster_path\":\"\\/kiX7UYfOpYrMFSAGbI6j1pFkLzQ.jpg\",\"id\":613504,\"adult\":false,\"backdrop_path\":\"\\/r5srC0cqU36n38azFnCyReEksiR.jpg\",\"original_language\":\"en\",\"original_title\":\"After We Collided\",\"genre_ids\":[18,10749],\"title\":\"After We Collided\",\"vote_average\":6.6,\"overview\":\"Tessa finds herself struggling with her complicated relationship with Hardin; she faces a dilemma that could change their lives forever.\",\"release_date\":\"2020-09-02\"},{\"popularity\":372.479,\"vote_count\":856,\"video\":false,\"poster_path\":\"\\/tI8ocADh22GtQFV28vGHaBZVb0U.jpg\",\"id\":475430,\"adult\":false,\"backdrop_path\":\"\\/o0F8xAt8YuEm5mEZviX5pEFC12y.jpg\",\"original_language\":\"en\",\"original_title\":\"Artemis Fowl\",\"genre_ids\":[28,12,14,878,10751],\"title\":\"Artemis Fowl\",\"vote_average\":5.8,\"overview\":\"Artemis Fowl is a 12-year-old genius and descendant of a long line of criminal masterminds. He soon finds himself in an epic battle against a race of powerful underground fairies who may be behind his father's disappearance.\",\"release_date\":\"2020-06-12\"},{\"popularity\":345.688,\"vote_count\":5984,\"video\":false,\"poster_path\":\"\\/h4VB6m0RwcicVEZvzftYZyKXs6K.jpg\",\"id\":495764,\"adult\":false,\"backdrop_path\":\"\\/9xNOiv6DZZjH7ABoUUDP0ZynouU.jpg\",\"original_language\":\"en\",\"original_title\":\"Birds of Prey (and the Fantabulous Emancipation of One Harley Quinn)\",\"genre_ids\":[28,35,80],\"title\":\"Birds of Prey (and the Fantabulous Emancipation of One Harley Quinn)\",\"vote_average\":7.2,\"overview\":\"Harley Quinn joins forces with a singer, an assassin and a police detective to help a young girl who had a hit placed on her after she stole a rare diamond from a crime lord.\",\"release_date\":\"2020-02-05\"},{\"popularity\":341.764,\"vote_count\":1189,\"video\":false,\"poster_path\":\"\\/7W0G3YECgDAfnuiHG91r8WqgIOe.jpg\",\"id\":446893,\"adult\":false,\"backdrop_path\":\"\\/qsxhnirlp7y4Ae9bd11oYJSX59j.jpg\",\"original_language\":\"en\",\"original_title\":\"Trolls World Tour\",\"genre_ids\":[12,16,35,14,10402,10751],\"title\":\"Trolls World Tour\",\"vote_average\":7.6,\"overview\":\"Queen Poppy and Branch make a surprising discovery \xE2\x80\x94 there are other Troll worlds beyond their own, and their distinct differences create big clashes between these various tribes. When a mysterious threat puts all of the Trolls across the land in danger, Poppy, Branch, and their band of friends must embark on an epic quest to create harmony among the feuding Trolls to unite them against certain doom.\",\"release_date\":\"2020-03-12\"},{\"popularity\":330.545,\"vote_count\":5364,\"video\":false,\"poster_path\":\"\\/y95lQLnuNKdPAzw9F9Ab8kJ80c3.jpg\",\"id\":38700,\"adult\":false,\"backdrop_path\":\"\\/upUy2QhMZEmtypPW3PdieKLAHxh.jpg\",\"original_language\":\"en\",\"original_title\":\"Bad Boys for Life\",\"genre_ids\":[28,80,53],\"title\":\"Bad Boys for Life\",\"vote_average\":7.2,\"overview\":\"Marcus and Mike are forced to confront new threats, career changes, and midlife crises as they join the newly created elite team AMMO of the Miami police department to take down the ruthless Armando Armas, the vicious leader of a Miami drug cartel.\",\"release_date\":\"2020-01-15\"},{\"popularity\":321.303,\"vote_count\":15080,\"video\":false,\"poster_path\":\"\\/udDclJoHjfjb8Ekgsd4FDteOkCU.jpg\",\"id\":475557,\"adult\":false,\"backdrop_path\":\"\\/n6bUvigpRFqSwmPp1m2YADdbRBc.jpg\",\"original_language\":\"en\",\"original_title\":\"Joker\",\"genre_ids\":[80,18,53],\"title\":\"Joker\",\"vote_average\":8.2,\"overview\":\"During the 1980s, a failed stand-up comedian is driven insane and turns to a life of crime and chaos in Gotham City while becoming an infamous psychopathic crime figure.\",\"release_date\":\"2019-10-02\"},{\"popularity\":318.335,\"vote_count\":40,\"video\":false,\"poster_path\":\"\\/q2lkJf1TAjImTHCEO7XvbqPtnPb.jpg\",\"id\":703134,\"adult\":false,\"backdrop_path\":\"\\/j57oUw8LIYvjOl0zs3A1A1UqwKH.jpg\",\"original_language\":\"en\",\"original_title\":\"Infamous\",\"genre_ids\":[80,18,53],\"title\":\"Infamous\",\"vote_average\":5.4,\"overview\":\"Two young lovers rob their way across the southland, posting their exploits to social media, and gaining fame and followers as a result.\",\"release_date\":\"2020-06-12\"},{\"popularity\":317.294,\"vote_count\":112,\"video\":false,\"poster_path\":\"\\/sDi6wKgECUjDug2gn4uODSqZ3yC.jpg\",\"id\":632618,\"adult\":false,\"backdrop_path\":\"\\/cVdYaAQmd5DZNdo0KFJruz7JpUs.jpg\",\"original_language\":\"es\",\"original_title\":\"Cr\xC3\xADmenes de familia\",\"genre_ids\":[80,18,53],\"title\":\"The Crimes That Bind\",\"vote_average\":6.4,\"overview\":\"When her son is accused of raping and trying to murder his ex-wife, Alicia embarks on a journey that will change her life forever.\",\"release_date\":\"2020-08-20\"},{\"popularity\":314.628,\"vote_count\":143,\"video\":false,\"poster_path\":\"\\/3eg0kGC2Xh0vhydJHO37Sp4cmMt.jpg\",\"id\":531499,\"adult\":false,\"backdrop_path\":\"\\/zogWnCSztU8xvabaepQnAwsOtOt.jpg\",\"original_language\":\"en\",\"original_title\":\"The Tax Collector\",\"genre_ids\":[28,80,18],\"title\":\"The Tax Collector\",\"vote_average\":6.1,\"overview\":\"David Cuevas is a family man who works as a gangland tax collector for high ranking Los Angeles gang members. He makes collections across the city with his partner Creeper making sure people pay up or will see retaliation. An old threat returns to Los Angeles that puts everything David loves in harm\xE2\x80\x99s way.\",\"release_date\":\"2020-08-07\"},{\"popularity\":313.008,\"vote_count\":1238,\"video\":false,\"poster_path\":\"\\/kjMbDciooTbJPofVXgAoFjfX8Of.jpg\",\"id\":516486,\"adult\":false,\"backdrop_path\":\"\\/xXBnM6uSTk6qqCf0SRZKXcga9Ba.jpg\",\"original_language\":\"en\",\"original_title\":\"Greyhound\",\"genre_ids\":[28,18,10752],\"title\":\"Greyhound\",\"vote_average\":7.5,\"overview\":\"A first-time captain leads a convoy of allied ships carrying thousands of soldiers across the treacherous waters of the \xE2\x80\x9CBlack Pit\xE2\x80\x9D to the front lines of WW2. With no air cover protection for 5 days, the captain and his convoy must battle the surrounding enemy Nazi U-boats in order to give the allies a chance to win the war.\",\"release_date\":\"2020-07-10\"},{\"popularity\":312.297,\"id\":746180,\"video\":false,\"vote_count\":2,\"vote_average\":5,\"title\":\"TKG: The Kids of Grove\",\"release_date\":\"2020-09-23\",\"original_language\":\"en\",\"original_title\":\"TKG: The Kids of Grove\",\"genre_ids\":[80,53],\"backdrop_path\":\"\\/lRI2Wyz8ZX5caHxc4V6mSLByze.jpg\",\"adult\":false,\"overview\":\"Wrapping up a long week of work employees are in a fight for survival against a local gang who are out for blood - but who is justified? A thrilling look into the consequences experienced by trying to do the \\\"right thing\\\" by society.\",\"poster_path\":\"\\/fhewXiv5r1al9xjanJpI9aW1vih.jpg\"},{\"popularity\":311.811,\"vote_count\":119,\"video\":false,\"poster_path\":\"\\/lv3RonWge4GlC9ymNzC0oWpFCfv.jpg\",\"id\":611395,\"adult\":false,\"backdrop_path\":\"\\/90yhXKTDNfaV7JnC7RcTpZcRTGC.jpg\",\"original_language\":\"zh\",\"original_title\":\"\xE5\xBE\x81\xE9\x80\x94\",\"genre_ids\":[28,12,14],\"title\":\"Double World\",\"vote_average\":6.8,\"overview\":\"Keen to bring honor to his clan, young villager Dong Yilong embarks on a perilous journey to compete in a tournament that selects warriors for battle.\",\"release_date\":\"2020-07-21\"},{\"popularity\":307.197,\"vote_count\":173,\"video\":false,\"poster_path\":\"\\/aVbqhqYtlxwEGihTEhewZAgDOCX.jpg\",\"id\":489326,\"adult\":false,\"backdrop_path\":\"\\/dFB6Tiy3z2xRLbnEUB5ocApT5xG.jpg\",\"original_language\":\"en\",\"original_title\":\"Mortal\",\"genre_ids\":[28,14,53],\"title\":\"Mortal\",\"vote_average\":6.5,\"overview\":\"A young boy must discover the origins of his extraordinary powers before he is captured by authorities hell-bent on condemning him for an accidental murder.\",\"release_date\":\"2020-02-28\"},{\"popularity\":306.08,\"vote_count\":125,\"video\":false,\"poster_path\":\"\\/dnN1ncxEOO1TY0gYL2FWxJqlhlL.jpg\",\"id\":603119,\"adult\":false,\"backdrop_path\":\"\\/aRyTzHXl9A0vHsd3zd8w2IJxezn.jpg\",\"original_language\":\"en\",\"original_title\":\"The Silencing\",\"genre_ids\":[28,80,53],\"title\":\"The Silencing\",\"vote_average\":6.7,\"overview\":\"A reformed hunter becomes involved in a deadly game of cat and mouse when he and the local sheriff set out to track a vicious killer who may have kidnapped his daughter years ago.\",\"release_date\":\"2020-07-18\"}]}"
